('C:\\Users\\chess\\Desktop\\rezume\\mafia_app\\build\\main\\main.pkg',
 {'BINARY': 1,
  'DATA': 1,
  'EXECUTABLE': 1,
  'EXTENSION': 1,
  'PYMODULE': 1,
  'PYSOURCE': 1,
  'PYZ': 0,
  'SPLASH': 1},
 [('PYZ-00.pyz',
   'C:\\Users\\chess\\Desktop\\rezume\\mafia_app\\build\\main\\PYZ-00.pyz',
   'PYZ'),
  ('struct',
   'C:\\Users\\chess\\Desktop\\rezume\\mafia_app\\build\\main\\localpycs\\struct.pyc',
   'PYMODULE'),
  ('pyimod01_archive',
   'C:\\Users\\chess\\Desktop\\rezume\\mafia_app\\build\\main\\localpycs\\pyimod01_archive.pyc',
   'PYMODULE'),
  ('pyimod02_importers',
   'C:\\Users\\chess\\Desktop\\rezume\\mafia_app\\build\\main\\localpycs\\pyimod02_importers.pyc',
   'PYMODULE'),
  ('pyimod03_ctypes',
   'C:\\Users\\chess\\Desktop\\rezume\\mafia_app\\build\\main\\localpycs\\pyimod03_ctypes.pyc',
   'PYMODULE'),
  ('pyimod04_pywin32',
   'C:\\Users\\chess\\Desktop\\rezume\\mafia_app\\build\\main\\localpycs\\pyimod04_pywin32.pyc',
   'PYMODULE'),
  ('pyiboot01_bootstrap',
   'C:\\Users\\chess\\AppData\\Local\\Programs\\Python\\Python310\\lib\\site-packages\\PyInstaller\\loader\\pyiboot01_bootstrap.py',
   'PYSOURCE'),
  ('pyi_rth_inspect',
   'C:\\Users\\chess\\AppData\\Local\\Programs\\Python\\Python310\\Lib\\site-packages\\PyInstaller\\hooks\\rthooks\\pyi_rth_inspect.py',
   'PYSOURCE'),
  ('pyi_rth_localhost_fletd',
   'C:\\Users\\chess\\AppData\\Local\\Programs\\Python\\Python310\\Lib\\site-packages\\flet\\__pyinstaller\\rthooks\\pyi_rth_localhost_fletd.py',
   'PYSOURCE'),
  ('pyi_rth_pkgres',
   'C:\\Users\\chess\\AppData\\Local\\Programs\\Python\\Python310\\Lib\\site-packages\\PyInstaller\\hooks\\rthooks\\pyi_rth_pkgres.py',
   'PYSOURCE'),
  ('pyi_rth_win32comgenpy',
   'C:\\Users\\chess\\AppData\\Local\\Programs\\Python\\Python310\\Lib\\site-packages\\PyInstaller\\hooks\\rthooks\\pyi_rth_win32comgenpy.py',
   'PYSOURCE'),
  ('pyi_rth_pywintypes',
   'C:\\Users\\chess\\AppData\\Local\\Programs\\Python\\Python310\\Lib\\site-packages\\_pyinstaller_hooks_contrib\\hooks\\rthooks\\pyi_rth_pywintypes.py',
   'PYSOURCE'),
  ('pyi_rth_pythoncom',
   'C:\\Users\\chess\\AppData\\Local\\Programs\\Python\\Python310\\Lib\\site-packages\\_pyinstaller_hooks_contrib\\hooks\\rthooks\\pyi_rth_pythoncom.py',
   'PYSOURCE'),
  ('pyi_rth_pkgutil',
   'C:\\Users\\chess\\AppData\\Local\\Programs\\Python\\Python310\\Lib\\site-packages\\PyInstaller\\hooks\\rthooks\\pyi_rth_pkgutil.py',
   'PYSOURCE'),
  ('main', 'C:\\Users\\chess\\Desktop\\rezume\\mafia_app\\main.py', 'PYSOURCE'),
  ('VCRUNTIME140.dll',
   'C:\\Users\\chess\\AppData\\Local\\Programs\\Python\\Python310\\VCRUNTIME140.dll',
   'BINARY'),
  ('python310.dll',
   'C:\\Users\\chess\\AppData\\Local\\Programs\\Python\\Python310\\python310.dll',
   'BINARY'),
  ('pywin32_system32\\pywintypes310.dll',
   'C:\\Users\\chess\\AppData\\Local\\Programs\\Python\\Python310\\lib\\site-packages\\pywin32_system32\\pywintypes310.dll',
   'BINARY'),
  ('pywin32_system32\\pythoncom310.dll',
   'C:\\Users\\chess\\AppData\\Local\\Programs\\Python\\Python310\\lib\\site-packages\\pywin32_system32\\pythoncom310.dll',
   'BINARY'),
  ('_decimal.pyd',
   'C:\\Users\\chess\\AppData\\Local\\Programs\\Python\\Python310\\DLLs\\_decimal.pyd',
   'EXTENSION'),
  ('_hashlib.pyd',
   'C:\\Users\\chess\\AppData\\Local\\Programs\\Python\\Python310\\DLLs\\_hashlib.pyd',
   'EXTENSION'),
  ('_lzma.pyd',
   'C:\\Users\\chess\\AppData\\Local\\Programs\\Python\\Python310\\DLLs\\_lzma.pyd',
   'EXTENSION'),
  ('_bz2.pyd',
   'C:\\Users\\chess\\AppData\\Local\\Programs\\Python\\Python310\\DLLs\\_bz2.pyd',
   'EXTENSION'),
  ('select.pyd',
   'C:\\Users\\chess\\AppData\\Local\\Programs\\Python\\Python310\\DLLs\\select.pyd',
   'EXTENSION'),
  ('_socket.pyd',
   'C:\\Users\\chess\\AppData\\Local\\Programs\\Python\\Python310\\DLLs\\_socket.pyd',
   'EXTENSION'),
  ('win32trace.pyd',
   'C:\\Users\\chess\\AppData\\Local\\Programs\\Python\\Python310\\lib\\site-packages\\win32\\win32trace.pyd',
   'EXTENSION'),
  ('win32ui.pyd',
   'C:\\Users\\chess\\AppData\\Local\\Programs\\Python\\Python310\\lib\\site-packages\\Pythonwin\\win32ui.pyd',
   'EXTENSION'),
  ('_ssl.pyd',
   'C:\\Users\\chess\\AppData\\Local\\Programs\\Python\\Python310\\DLLs\\_ssl.pyd',
   'EXTENSION'),
  ('_win32sysloader.pyd',
   'C:\\Users\\chess\\AppData\\Local\\Programs\\Python\\Python310\\lib\\site-packages\\win32\\_win32sysloader.pyd',
   'EXTENSION'),
  ('win32api.pyd',
   'C:\\Users\\chess\\AppData\\Local\\Programs\\Python\\Python310\\lib\\site-packages\\win32\\win32api.pyd',
   'EXTENSION'),
  ('_ctypes.pyd',
   'C:\\Users\\chess\\AppData\\Local\\Programs\\Python\\Python310\\DLLs\\_ctypes.pyd',
   'EXTENSION'),
  ('_uuid.pyd',
   'C:\\Users\\chess\\AppData\\Local\\Programs\\Python\\Python310\\DLLs\\_uuid.pyd',
   'EXTENSION'),
  ('win32com\\shell\\shell.pyd',
   'C:\\Users\\chess\\AppData\\Local\\Programs\\Python\\Python310\\lib\\site-packages\\win32comext\\shell\\shell.pyd',
   'EXTENSION'),
  ('pyexpat.pyd',
   'C:\\Users\\chess\\AppData\\Local\\Programs\\Python\\Python310\\DLLs\\pyexpat.pyd',
   'EXTENSION'),
  ('unicodedata.pyd',
   'C:\\Users\\chess\\AppData\\Local\\Programs\\Python\\Python310\\DLLs\\unicodedata.pyd',
   'EXTENSION'),
  ('_sqlite3.pyd',
   'C:\\Users\\chess\\AppData\\Local\\Programs\\Python\\Python310\\DLLs\\_sqlite3.pyd',
   'EXTENSION'),
  ('_queue.pyd',
   'C:\\Users\\chess\\AppData\\Local\\Programs\\Python\\Python310\\DLLs\\_queue.pyd',
   'EXTENSION'),
  ('libcrypto-1_1.dll',
   'C:\\Users\\chess\\AppData\\Local\\Programs\\Python\\Python310\\DLLs\\libcrypto-1_1.dll',
   'BINARY'),
  ('mfc140u.dll',
   'C:\\Users\\chess\\AppData\\Local\\Programs\\Python\\Python310\\lib\\site-packages\\Pythonwin\\mfc140u.dll',
   'BINARY'),
  ('libssl-1_1.dll',
   'C:\\Users\\chess\\AppData\\Local\\Programs\\Python\\Python310\\DLLs\\libssl-1_1.dll',
   'BINARY'),
  ('libffi-7.dll',
   'C:\\Users\\chess\\AppData\\Local\\Programs\\Python\\Python310\\DLLs\\libffi-7.dll',
   'BINARY'),
  ('sqlite3.dll',
   'C:\\Users\\chess\\AppData\\Local\\Programs\\Python\\Python310\\DLLs\\sqlite3.dll',
   'BINARY'),
  ('base_library.zip',
   'C:\\Users\\chess\\Desktop\\rezume\\mafia_app\\build\\main\\base_library.zip',
   'DATA'),
  ('flet\\bin\\flet\\data\\flutter_assets\\NOTICES.Z',
   'C:\\Users\\chess\\AppData\\Local\\Temp\\d12bd0f6-95b6-43fe-9457-c1d784a08b19\\flet\\data\\flutter_assets\\NOTICES.Z',
   'DATA'),
  ('flet\\bin\\flet\\data\\flutter_assets\\FontManifest.json',
   'C:\\Users\\chess\\AppData\\Local\\Temp\\d12bd0f6-95b6-43fe-9457-c1d784a08b19\\flet\\data\\flutter_assets\\FontManifest.json',
   'DATA'),
  ('flet\\bin\\flet\\audioplayers_windows_plugin.dll',
   'C:\\Users\\chess\\AppData\\Local\\Temp\\d12bd0f6-95b6-43fe-9457-c1d784a08b19\\flet\\audioplayers_windows_plugin.dll',
   'DATA'),
  ('flet\\bin\\flet\\data\\flutter_assets\\fonts\\MaterialIcons-Regular.otf',
   'C:\\Users\\chess\\AppData\\Local\\Temp\\d12bd0f6-95b6-43fe-9457-c1d784a08b19\\flet\\data\\flutter_assets\\fonts\\MaterialIcons-Regular.otf',
   'DATA'),
  ('flet\\bin\\flet\\data\\flutter_assets\\packages\\window_manager\\images\\ic_chrome_minimize.png',
   'C:\\Users\\chess\\AppData\\Local\\Temp\\d12bd0f6-95b6-43fe-9457-c1d784a08b19\\flet\\data\\flutter_assets\\packages\\window_manager\\images\\ic_chrome_minimize.png',
   'DATA'),
  ('flet\\bin\\flet\\flet.exe',
   'C:\\Users\\chess\\AppData\\Local\\Temp\\d12bd0f6-95b6-43fe-9457-c1d784a08b19\\flet\\flet.exe',
   'DATA'),
  ('flet\\bin\\flet\\window_manager_plugin.dll',
   'C:\\Users\\chess\\AppData\\Local\\Temp\\d12bd0f6-95b6-43fe-9457-c1d784a08b19\\flet\\window_manager_plugin.dll',
   'DATA'),
  ('certifi\\cacert.pem',
   'C:\\Users\\chess\\AppData\\Local\\Programs\\Python\\Python310\\lib\\site-packages\\certifi\\cacert.pem',
   'DATA'),
  ('flet\\bin\\flet\\data\\flutter_assets\\packages\\window_manager\\images\\ic_chrome_close.png',
   'C:\\Users\\chess\\AppData\\Local\\Temp\\d12bd0f6-95b6-43fe-9457-c1d784a08b19\\flet\\data\\flutter_assets\\packages\\window_manager\\images\\ic_chrome_close.png',
   'DATA'),
  ('flet\\bin\\flet\\data\\flutter_assets\\AssetManifest.json',
   'C:\\Users\\chess\\AppData\\Local\\Temp\\d12bd0f6-95b6-43fe-9457-c1d784a08b19\\flet\\data\\flutter_assets\\AssetManifest.json',
   'DATA'),
  ('flet\\bin\\flet\\url_launcher_windows_plugin.dll',
   'C:\\Users\\chess\\AppData\\Local\\Temp\\d12bd0f6-95b6-43fe-9457-c1d784a08b19\\flet\\url_launcher_windows_plugin.dll',
   'DATA'),
  ('flet\\bin\\flet\\msvcp140.dll',
   'C:\\Users\\chess\\AppData\\Local\\Temp\\d12bd0f6-95b6-43fe-9457-c1d784a08b19\\flet\\msvcp140.dll',
   'DATA'),
  ('flet\\bin\\flet\\flutter_windows.dll',
   'C:\\Users\\chess\\AppData\\Local\\Temp\\d12bd0f6-95b6-43fe-9457-c1d784a08b19\\flet\\flutter_windows.dll',
   'DATA'),
  ('flet\\bin\\flet\\data\\flutter_assets\\packages\\window_manager\\images\\ic_chrome_maximize.png',
   'C:\\Users\\chess\\AppData\\Local\\Temp\\d12bd0f6-95b6-43fe-9457-c1d784a08b19\\flet\\data\\flutter_assets\\packages\\window_manager\\images\\ic_chrome_maximize.png',
   'DATA'),
  ('certifi\\py.typed',
   'C:\\Users\\chess\\AppData\\Local\\Programs\\Python\\Python310\\lib\\site-packages\\certifi\\py.typed',
   'DATA'),
  ('flet\\bin\\flet\\vcruntime140.dll',
   'C:\\Users\\chess\\AppData\\Local\\Temp\\d12bd0f6-95b6-43fe-9457-c1d784a08b19\\flet\\vcruntime140.dll',
   'DATA'),
  ('flet\\bin\\fletd.exe',
   'C:\\Users\\chess\\AppData\\Local\\Temp\\d12bd0f6-95b6-43fe-9457-c1d784a08b19\\fletd.exe',
   'DATA'),
  ('flet\\bin\\flet\\data\\icudtl.dat',
   'C:\\Users\\chess\\AppData\\Local\\Temp\\d12bd0f6-95b6-43fe-9457-c1d784a08b19\\flet\\data\\icudtl.dat',
   'DATA'),
  ('flet\\bin\\flet\\screen_retriever_plugin.dll',
   'C:\\Users\\chess\\AppData\\Local\\Temp\\d12bd0f6-95b6-43fe-9457-c1d784a08b19\\flet\\screen_retriever_plugin.dll',
   'DATA'),
  ('flet\\bin\\flet\\data\\flutter_assets\\shaders\\ink_sparkle.frag',
   'C:\\Users\\chess\\AppData\\Local\\Temp\\d12bd0f6-95b6-43fe-9457-c1d784a08b19\\flet\\data\\flutter_assets\\shaders\\ink_sparkle.frag',
   'DATA'),
  ('flet\\bin\\flet\\window_to_front_plugin.dll',
   'C:\\Users\\chess\\AppData\\Local\\Temp\\d12bd0f6-95b6-43fe-9457-c1d784a08b19\\flet\\window_to_front_plugin.dll',
   'DATA'),
  ('flet\\bin\\flet\\vcruntime140_1.dll',
   'C:\\Users\\chess\\AppData\\Local\\Temp\\d12bd0f6-95b6-43fe-9457-c1d784a08b19\\flet\\vcruntime140_1.dll',
   'DATA'),
  ('flet\\bin\\flet\\data\\app.so',
   'C:\\Users\\chess\\AppData\\Local\\Temp\\d12bd0f6-95b6-43fe-9457-c1d784a08b19\\flet\\data\\app.so',
   'DATA'),
  ('flet\\bin\\flet\\data\\flutter_assets\\packages\\window_manager\\images\\ic_chrome_unmaximize.png',
   'C:\\Users\\chess\\AppData\\Local\\Temp\\d12bd0f6-95b6-43fe-9457-c1d784a08b19\\flet\\data\\flutter_assets\\packages\\window_manager\\images\\ic_chrome_unmaximize.png',
   'DATA')],
 False,
 False,
 False,
 [],
 None,
 None,
 None)
